{
  "success": true,
  "data": [
    {
      "produto_id": 3732,
      "posicao_busca": null,
      "classificacao_mercadologica_id": 96,
      "marca_id": null,
      "descricao": "Cerveja Budweiser 473ml",
      "imagem": "04331ae6-008c-43fb-879b-f67631bd2246.jpg",
      "disponivel": true,
      "preco": "5.79",
      "priorizado": false,
      "quantidade_minima": "1",
      "quantidade_maxima": "5142",
      "bebida_alcoolica": true,
      "link": "cerveja-budweiser-473ml",
      "codigo_barras": "7891991011723",
      "sku": "82-00E94",
      "codigo_erp": 54839,
      "quantidade_vendida": 91641,
      "em_oferta": true,
      "oferta": {
        "oferta_id": 285909,
        "oferta_item_id": "5d6bf234-e79b-4787-98d4-59f987008a09",
        "categoria": "G",
        "tipo_oferta_id": 1,
        "nome": "Clube",
        "tag": "clube",
        "classe_oferta": "oferta-preto",
        "preco_antigo": "5.49",
        "preco_oferta": "5.19",
        "quantidade_minima": 1,
        "quantidade_maxima": 10000,
        "quantidade_pagar": 1,
        "quantidade_oferta": 1,
        "faixas_precos": null,
        "exibe_preco_original": false,
        "preco_original": 0,
        "familia": false,
        "menor_preco": "5.190",
        "preco_oferta_fracao": null,
        "preco_antigo_fracao": null
      },
      "quantidade_unidade_diferente": 1,
      "exibe_preco_original": false,
      "preco_original": 0,
      "unidade_sigla": "UN",
      "possui_unidade_diferente": false,
      "permitir_observacao_na_compra": false,
      "habilitar_seletor_unidade_peso": false,
      "observacao": null,
      "unidade_fracao": null,
      "marca": null,
      "secao_id": 96,
      "busca_item": null,
      "volume_principal": {
        "codigo": 4232,
        "produto_id": 3732,
        "quantidade": 12,
        "ajuste_preco": null,
        "preco_ajustado": null,
        "principal": true
      },
      "anunciado": false,
      "posicao": null,
      "urls_eventos_ads": null,
      "tags": [
        {
          "id": "426d433c-2a48-4642-a287-728441186abe",
          "descricao": "Lata",
          "tipo": "Cervejas por Embalagens",
          "produto_id": "3732"
        },
        {
          "id": "62e02c5b-7d4d-4589-ac87-41cf78542d17",
          "descricao": "Tradicional",
          "tipo": "Categorias de Cervejas",
          "produto_id": "3732"
        }
      ],
      "id": "47344"
    },
    {
      "produto_id": 21184,
      "posicao_busca": null,
      "classificacao_mercadologica_id": 32,
      "marca_id": null,
      "descricao": "Pão De Queijo Tradição Minas Poliminas Congelado 1kg",
      "imagem": "ceb69844-92e3-4888-ac97-bb432b4cd6bd.jpg",
      "disponivel": true,
      "preco": "11.79",
      "priorizado": false,
      "quantidade_minima": "1",
      "quantidade_maxima": "323",
      "bebida_alcoolica": false,
      "link": "pao-de-queijo-tradicao-minas-poliminas-congelado-1kg",
      "codigo_barras": "7896576006576",
      "sku": "82-052C0",
      "codigo_erp": 106735,
      "quantidade_vendida": 8173,
      "em_oferta": true,
      "oferta": {
        "oferta_id": 285909,
        "oferta_item_id": "c712cb19-524a-4588-a276-fedc11b3ce8e",
        "categoria": "G",
        "tipo_oferta_id": 1,
        "nome": "Clube",
        "tag": "clube",
        "classe_oferta": "oferta-preto",
        "preco_antigo": "10.29",
        "preco_oferta": "7.99",
        "quantidade_minima": 1,
        "quantidade_maxima": 10000,
        "quantidade_pagar": 1,
        "quantidade_oferta": 1,
        "faixas_precos": null,
        "exibe_preco_original": false,
        "preco_original": 0,
        "familia": false,
        "menor_preco": "7.990",
        "preco_oferta_fracao": null,
        "preco_antigo_fracao": null
      },
      "quantidade_unidade_diferente": 1,
      "exibe_preco_original": false,
      "preco_original": 0,
      "unidade_sigla": "UN",
      "possui_unidade_diferente": false,
      "permitir_observacao_na_compra": false,
      "habilitar_seletor_unidade_peso": false,
      "observacao": null,
      "unidade_fracao": null,
      "marca": null,
      "secao_id": 32,
      "busca_item": null,
      "volume_principal": null,
      "anunciado": false,
      "posicao": null,
      "urls_eventos_ads": null,
      "tags": [],
      "id": "206851"
    },
    {
      "produto_id": 30950,
      "posicao_busca": null,
      "classificacao_mercadologica_id": 174,
      "marca_id": null,
      "descricao": "Carne Bovina Friboi Maturatta Bife Ancho Entrecot Sem Osso Kg (aprox 1,5kg)",
      "imagem": "05d38e0a-52e2-4e79-9722-8443aa205a14.jpg",
      "disponivel": true,
      "preco": "101.85",
      "priorizado": false,
      "quantidade_minima": "1",
      "quantidade_maxima": "806",
      "bebida_alcoolica": false,
      "link": "carne-bovina-friboi-maturatta-bife-ancho-entrecot-sem-osso-kg-aprox-15kg",
      "codigo_barras": "14120",
      "sku": "82-078E6",
      "codigo_erp": 117390,
      "quantidade_vendida": 1133,
      "em_oferta": true,
      "oferta": {
        "oferta_id": 285909,
        "oferta_item_id": "ac8419d3-5428-4576-b67c-3269d52deab3",
        "categoria": "G",
        "tipo_oferta_id": 1,
        "nome": "Clube",
        "tag": "clube",
        "classe_oferta": "oferta-preto",
        "preco_antigo": "94.35",
        "preco_oferta": "86.99",
        "quantidade_minima": 1,
        "quantidade_maxima": 10000,
        "quantidade_pagar": 1,
        "quantidade_oferta": 1,
        "faixas_precos": null,
        "exibe_preco_original": true,
        "preco_original": 57.99,
        "familia": false,
        "menor_preco": "86.990",
        "preco_oferta_fracao": null,
        "preco_antigo_fracao": null
      },
      "quantidade_unidade_diferente": 1.5,
      "exibe_preco_original": true,
      "preco_original": 67.9,
      "unidade_sigla": "KG",
      "possui_unidade_diferente": true,
      "permitir_observacao_na_compra": false,
      "habilitar_seletor_unidade_peso": false,
      "observacao": null,
      "unidade_fracao": null,
      "marca": null,
      "secao_id": 174,
      "busca_item": null,
      "volume_principal": null,
      "anunciado": false,
      "posicao": null,
      "urls_eventos_ads": null,
      "tags": [],
      "id": "341548"
    },
    {
      "produto_id": 5458,
      "posicao_busca": null,
      "classificacao_mercadologica_id": 47,
      "marca_id": null,
      "descricao": "Amaciante De Roupas Comfort Concentrado Frescor Intenso 1,5l",
      "imagem": "2c9a55f3-5bc8-4d8b-9045-090f16add7fb.jpg",
      "disponivel": true,
      "preco": "31.90",
      "priorizado": false,
      "quantidade_minima": "1",
      "quantidade_maxima": "253",
      "bebida_alcoolica": false,
      "link": "amaciante-de-roupas-comfort-concentrado-frescor-intenso-15l",
      "codigo_barras": "7891150065178",
      "sku": "82-01552",
      "codigo_erp": 89778,
      "quantidade_vendida": 2565,
      "em_oferta": true,
      "oferta": {
        "oferta_id": 285909,
        "oferta_item_id": "5b375a85-fc67-41a5-b146-2561bf44506f",
        "categoria": "G",
        "tipo_oferta_id": 1,
        "nome": "Clube",
        "tag": "clube",
        "classe_oferta": "oferta-preto",
        "preco_antigo": "31.90",
        "preco_oferta": "25.90",
        "quantidade_minima": 1,
        "quantidade_maxima": 10000,
        "quantidade_pagar": 1,
        "quantidade_oferta": 1,
        "faixas_precos": null,
        "exibe_preco_original": false,
        "preco_original": 0,
        "familia": false,
        "menor_preco": "25.900",
        "preco_oferta_fracao": null,
        "preco_antigo_fracao": null
      },
      "quantidade_unidade_diferente": 1,
      "exibe_preco_original": false,
      "preco_original": 0,
      "unidade_sigla": "UN",
      "possui_unidade_diferente": false,
      "permitir_observacao_na_compra": false,
      "habilitar_seletor_unidade_peso": false,
      "observacao": null,
      "unidade_fracao": null,
      "marca": null,
      "secao_id": 47,
      "busca_item": null,
      "volume_principal": null,
      "anunciado": false,
      "posicao": null,
      "urls_eventos_ads": null,
      "tags": [
        {
          "id": "83cfc315-1f19-41d2-ad40-585aa4845b14",
          "descricao": "Amaciante de Roupa",
          "tipo": "Limpeza de Roupas",
          "produto_id": "5458"
        }
      ],
      "id": "68564"
    },
    {
      "produto_id": 5076,
      "posicao_busca": null,
      "classificacao_mercadologica_id": 136,
      "marca_id": null,
      "descricao": "Café Melitta Regiões Mogiana 250g",
      "imagem": "8ca50d14-e14c-4d44-b73e-14b14c830452.jpg",
      "disponivel": true,
      "preco": "27.90",
      "priorizado": false,
      "quantidade_minima": "1",
      "quantidade_maxima": "128",
      "bebida_alcoolica": false,
      "link": "cafe-melitta-regioes-mogiana-250g",
      "codigo_barras": "7891021005562",
      "sku": "82-013D4",
      "codigo_erp": 11949,
      "quantidade_vendida": 1780,
      "em_oferta": true,
      "oferta": {
        "oferta_id": 285909,
        "oferta_item_id": "c923a6e8-7677-43e5-ba6f-15d6a2bca975",
        "categoria": "G",
        "tipo_oferta_id": 1,
        "nome": "Clube",
        "tag": "clube",
        "classe_oferta": "oferta-preto",
        "preco_antigo": "28.90",
        "preco_oferta": "24.90",
        "quantidade_minima": 1,
        "quantidade_maxima": 10000,
        "quantidade_pagar": 1,
        "quantidade_oferta": 1,
        "faixas_precos": null,
        "exibe_preco_original": false,
        "preco_original": 0,
        "familia": false,
        "menor_preco": "24.900",
        "preco_oferta_fracao": null,
        "preco_antigo_fracao": null
      },
      "quantidade_unidade_diferente": 1,
      "exibe_preco_original": false,
      "preco_original": 0,
      "unidade_sigla": "UN",
      "possui_unidade_diferente": false,
      "permitir_observacao_na_compra": false,
      "habilitar_seletor_unidade_peso": false,
      "observacao": null,
      "unidade_fracao": null,
      "marca": null,
      "secao_id": 136,
      "busca_item": null,
      "volume_principal": null,
      "anunciado": false,
      "posicao": null,
      "urls_eventos_ads": null,
      "tags": [],
      "id": "63655"
    },
    {
      "produto_id": 4034,
      "posicao_busca": null,
      "classificacao_mercadologica_id": 62,
      "marca_id": null,
      "descricao": "Coração De Frango Seara Congelado 1kg",
      "imagem": "73c444ef-138e-486a-ab34-13cebb718600.jpg",
      "disponivel": true,
      "preco": "31.90",
      "priorizado": false,
      "quantidade_minima": "1",
      "quantidade_maxima": "2595",
      "bebida_alcoolica": false,
      "link": "coracao-de-frango-seara-congelado-1kg",
      "codigo_barras": "7898367671130",
      "sku": "82-00FC2",
      "codigo_erp": 1030,
      "quantidade_vendida": 24990,
      "em_oferta": true,
      "oferta": {
        "oferta_id": 285909,
        "oferta_item_id": "8e68b88d-3858-4a88-95e4-b89d5f23d282",
        "categoria": "G",
        "tipo_oferta_id": 1,
        "nome": "Clube",
        "tag": "clube",
        "classe_oferta": "oferta-preto",
        "preco_antigo": "31.90",
        "preco_oferta": "28.99",
        "quantidade_minima": 1,
        "quantidade_maxima": 10000,
        "quantidade_pagar": 1,
        "quantidade_oferta": 1,
        "faixas_precos": null,
        "exibe_preco_original": false,
        "preco_original": 0,
        "familia": false,
        "menor_preco": "28.990",
        "preco_oferta_fracao": null,
        "preco_antigo_fracao": null
      },
      "quantidade_unidade_diferente": 1,
      "exibe_preco_original": false,
      "preco_original": 0,
      "unidade_sigla": "UN",
      "possui_unidade_diferente": false,
      "permitir_observacao_na_compra": false,
      "habilitar_seletor_unidade_peso": false,
      "observacao": null,
      "unidade_fracao": null,
      "marca": null,
      "secao_id": 62,
      "busca_item": null,
      "volume_principal": null,
      "anunciado": false,
      "posicao": null,
      "urls_eventos_ads": null,
      "tags": [],
      "id": "50593"
    },
    {
      "produto_id": 32349,
      "posicao_busca": null,
      "classificacao_mercadologica_id": 129,
      "marca_id": null,
      "descricao": "Shampoo Pantene Pro-v Bambu Nutre E Cresce 510ml",
      "imagem": "3257ffa6-7ff4-4dd5-8d4f-219a886a72f2.jpg",
      "disponivel": true,
      "preco": "46.90",
      "priorizado": false,
      "quantidade_minima": "1",
      "quantidade_maxima": "6",
      "bebida_alcoolica": false,
      "link": "shampoo-pantene-prov-bambu-nutre-e-cresce-510ml",
      "codigo_barras": "7500435260367",
      "sku": "82-07E5D",
      "codigo_erp": 119069,
      "quantidade_vendida": 11,
      "em_oferta": true,
      "oferta": {
        "oferta_id": 285909,
        "oferta_item_id": "5195ad8f-ed02-4d19-9890-64d18a298c62",
        "categoria": "G",
        "tipo_oferta_id": 1,
        "nome": "Clube",
        "tag": "clube",
        "classe_oferta": "oferta-preto",
        "preco_antigo": "46.90",
        "preco_oferta": "36.90",
        "quantidade_minima": 1,
        "quantidade_maxima": 10000,
        "quantidade_pagar": 1,
        "quantidade_oferta": 1,
        "faixas_precos": null,
        "exibe_preco_original": false,
        "preco_original": 0,
        "familia": false,
        "menor_preco": "36.900",
        "preco_oferta_fracao": null,
        "preco_antigo_fracao": null
      },
      "quantidade_unidade_diferente": 1,
      "exibe_preco_original": false,
      "preco_original": 0,
      "unidade_sigla": "UN",
      "possui_unidade_diferente": false,
      "permitir_observacao_na_compra": false,
      "habilitar_seletor_unidade_peso": false,
      "observacao": null,
      "unidade_fracao": null,
      "marca": null,
      "secao_id": 129,
      "busca_item": null,
      "volume_principal": null,
      "anunciado": false,
      "posicao": null,
      "urls_eventos_ads": null,
      "tags": [],
      "id": "372220"
    },
    {
      "produto_id": 27789,
      "posicao_busca": null,
      "classificacao_mercadologica_id": 25,
      "marca_id": null,
      "descricao": "Desodorante Dove Feminino Creme Sérum Previne Escurecimento 50g",
      "imagem": "f6112bda-fff0-47dd-bdf6-c00d36491eaa.jpg",
      "disponivel": true,
      "preco": "19.79",
      "priorizado": false,
      "quantidade_minima": "1",
      "quantidade_maxima": "37",
      "bebida_alcoolica": false,
      "link": "desodorante-dove-feminino-creme-serum-previne-escurecimento-50g",
      "codigo_barras": "7891150096783",
      "sku": "82-06C8D",
      "codigo_erp": 113451,
      "quantidade_vendida": 126,
      "em_oferta": true,
      "oferta": {
        "oferta_id": 285909,
        "oferta_item_id": "5b90cf04-f745-4104-9f38-58aa122c7ff3",
        "categoria": "G",
        "tipo_oferta_id": 1,
        "nome": "Clube",
        "tag": "clube",
        "classe_oferta": "oferta-preto",
        "preco_antigo": "17.59",
        "preco_oferta": "14.99",
        "quantidade_minima": 1,
        "quantidade_maxima": 10000,
        "quantidade_pagar": 1,
        "quantidade_oferta": 1,
        "faixas_precos": null,
        "exibe_preco_original": false,
        "preco_original": 0,
        "familia": false,
        "menor_preco": "14.990",
        "preco_oferta_fracao": null,
        "preco_antigo_fracao": null
      },
      "quantidade_unidade_diferente": 1,
      "exibe_preco_original": false,
      "preco_original": 0,
      "unidade_sigla": "UN",
      "possui_unidade_diferente": false,
      "permitir_observacao_na_compra": false,
      "habilitar_seletor_unidade_peso": false,
      "observacao": null,
      "unidade_fracao": null,
      "marca": null,
      "secao_id": 25,
      "busca_item": null,
      "volume_principal": null,
      "anunciado": false,
      "posicao": null,
      "urls_eventos_ads": null,
      "tags": [],
      "id": "288294"
    },
    {
      "produto_id": 31925,
      "posicao_busca": null,
      "classificacao_mercadologica_id": 47,
      "marca_id": null,
      "descricao": "Lava-roupas Omo Líquido Ciclo Rápido Ação Cuidado 1,4l",
      "imagem": "d458d2e3-f71c-4541-afea-d99793babdc2.jpg",
      "disponivel": true,
      "preco": "26.90",
      "priorizado": false,
      "quantidade_minima": "1",
      "quantidade_maxima": "10",
      "bebida_alcoolica": false,
      "link": "lavaroupas-omo-liquido-ciclo-rapido-acao-cuidado-14l",
      "codigo_barras": "7891150104297",
      "sku": "82-07CB5",
      "codigo_erp": 118511,
      "quantidade_vendida": 18,
      "em_oferta": true,
      "oferta": {
        "oferta_id": 285909,
        "oferta_item_id": "55fa4b9e-1904-4b17-81fd-dcc4d5e9512b",
        "categoria": "G",
        "tipo_oferta_id": 1,
        "nome": "Clube",
        "tag": "clube",
        "classe_oferta": "oferta-preto",
        "preco_antigo": "26.90",
        "preco_oferta": "24.90",
        "quantidade_minima": 1,
        "quantidade_maxima": 10000,
        "quantidade_pagar": 1,
        "quantidade_oferta": 1,
        "faixas_precos": null,
        "exibe_preco_original": false,
        "preco_original": 0,
        "familia": false,
        "menor_preco": "24.900",
        "preco_oferta_fracao": null,
        "preco_antigo_fracao": null
      },
      "quantidade_unidade_diferente": 1,
      "exibe_preco_original": false,
      "preco_original": 0,
      "unidade_sigla": "UN",
      "possui_unidade_diferente": false,
      "permitir_observacao_na_compra": false,
      "habilitar_seletor_unidade_peso": false,
      "observacao": null,
      "unidade_fracao": null,
      "marca": null,
      "secao_id": 47,
      "busca_item": null,
      "volume_principal": null,
      "anunciado": false,
      "posicao": null,
      "urls_eventos_ads": null,
      "tags": [],
      "id": "363053"
    },
    {
      "produto_id": 29571,
      "posicao_busca": null,
      "classificacao_mercadologica_id": 182,
      "marca_id": null,
      "descricao": "Copo Everest Vidro 360ml",
      "imagem": "0ce63197-af90-4a61-9e2b-7065ecdfc30a.jpg",
      "disponivel": true,
      "preco": "3.69",
      "priorizado": false,
      "quantidade_minima": "1",
      "quantidade_maxima": "376",
      "bebida_alcoolica": false,
      "link": "copo-everest-vidro-360ml",
      "codigo_barras": "6200000301198",
      "sku": "82-07383",
      "codigo_erp": 115610,
      "quantidade_vendida": 1545,
      "em_oferta": true,
      "oferta": {
        "oferta_id": 285909,
        "oferta_item_id": "dd1704e1-c622-4147-97d1-8c8f9a3dad7d",
        "categoria": "G",
        "tipo_oferta_id": 1,
        "nome": "Clube",
        "tag": "clube",
        "classe_oferta": "oferta-preto",
        "preco_antigo": "3.79",
        "preco_oferta": "2.99",
        "quantidade_minima": 1,
        "quantidade_maxima": 10000,
        "quantidade_pagar": 1,
        "quantidade_oferta": 1,
        "faixas_precos": null,
        "exibe_preco_original": false,
        "preco_original": 0,
        "familia": false,
        "menor_preco": "2.990",
        "preco_oferta_fracao": null,
        "preco_antigo_fracao": null
      },
      "quantidade_unidade_diferente": 1,
      "exibe_preco_original": false,
      "preco_original": 0,
      "unidade_sigla": "UN",
      "possui_unidade_diferente": false,
      "permitir_observacao_na_compra": false,
      "habilitar_seletor_unidade_peso": false,
      "observacao": null,
      "unidade_fracao": null,
      "marca": null,
      "secao_id": 182,
      "busca_item": null,
      "volume_principal": null,
      "anunciado": false,
      "posicao": null,
      "urls_eventos_ads": null,
      "tags": [],
      "id": "316094"
    }
  ],
  "paginator": {
    "page": 1,
    "items_per_page": 10,
    "total_pages": 2,
    "total_items": 11
  }
}